{
  "name": "Authentication",
  "base": "Model",
  "idInjection": true,
  "options": {
    "validateUpsert": true
  },
  "excludeBaseProperties": [
    "id"
  ],
  "hidden": [
    "created",
    "modified"
  ],
  "properties": {
    "createdBy": {
      "type": "string",
      "id": true
    },
    "passwordAuth": {
      "type": "boolean",
      "default": true
    },
    "defaultAuth": {
      "type": "string",
      "dafault": "password"
    },
    "created": {
      "type": "date",
      "default": "$now"
    },
    "modified": {
      "type": "date",
      "default": "$now"
    }
  },
  "validations": [],
  "relations": {
    "auth": {
      "type": "embedsMany",
      "model": "Auth",
      "options": {
        "validate": true,
        "forceId": false
      }
    },
    "createdBy": {
      "type": "belongsTo",
      "model": "userAccount",
      "foreignkey": "createdBy"
    }
  },
  "acls": [
    {
      "accessType": "*",
      "principalType": "ROLE",
      "principalId": "$owner",
      "permission": "ALLOW"
    }
  ],
  "methods": {}
}
