{
  "name": "dbConfig",
  "base": "Model",
  "options": {
    "validateUpsert": true
  },
  "properties": {
    "name": {
      "type": "string",
      "required": true
    },
    "host": {
      "type": "string",
      "required": true
    },
    "port": {
      "type": "number",
      "required": true,
      "default": 27017
    },
    "url": {
      "type": "string"
    },
    "database": {
      "type": "string",
      "required": true
    },
    "username": {
      "type": "string"
    },
    "password": {
      "type": "string"
    },
    "created": {
      "type": "date",
      "default": "$now"
    },
    "modified": {
      "type": "date",
      "default": "$now"
    }
  },
  "validations": [],
  "relations": {},
  "acls": [],
  "methods": {}
}
