{
  "name": "micro-sites",
  "base": "PersistedModel",
  "idInjection": true,
  "options": {
    "validateUpsert": true
  },
  "hidden": [
    "created",
    "modified",
    "id"
  ],
  "properties": {
    "siteName": {
      "type": "string",
      "required": true
    },
    "siteUrl": {
      "type": "string",
      "required": true
    },
    "logo": {
      "type": "string",
      "required": true
    },
    "dicription": {
      "type": "string"
    },
    "created": {
      "type": "date",
      "default": "$now"
    },
    "modified": {
      "type": "date",
      "default": "$now"
    }
  },
  "validations": [],
  "relations": {
    "dbConfig": {
      "type": "hasMany",
      "model": "dbConfig",
      "foreignKey": ""
    },
    "languages": {
      "type": "belongsTo",
      "model": "languages",
      "foreignKey": ""
    },
    "currencies": {
      "type": "belongsTo",
      "model": "currencies",
      "foreignKey": ""
    },
    "sites": {
      "type": "belongsTo",
      "model": "sites",
      "foreignKey": ""
    }
  },
  "acls": [
    {
      "accessType": "*",
      "principalType": "ROLE",
      "principalId": "$everyone",
      "permission": "DEFAULT"
    }
  ],
  "methods": {}
}
