{
  "name": "permisssions",
  "base": "Model",
  "idInjection": true,
  "options": {
    "validateUpsert": true
  },
  "hidden": [
    "created",
    "modified",
    "id"
  ],
  "properties": {
    "menuId": {
      "type": "string",
      "required": true
    },
    "menuType": {
      "type": "string"
    },
    "permission": {
      "type": [
        "string"
      ]
    },
    "created": {
      "type": "date",
      "default": "$now"
    },
    "modified": {
      "type": "date",
      "default": "$now"
    }
  },
  "validations": [],
  "relations": {
    "roles": {
      "type": "belongsTo",
      "model": "roles",
      "foreignKey": ""
    }
  },
  "acls": [
    {
      "accessType": "*",
      "principalType": "ROLE",
      "principalId": "$OWENER",
      "permission": "ALLOW"
    },
    {
      "accessType": "*",
      "principalType": "ROLE",
      "principalId": "$ADMIN",
      "permission": "ALLOW"
    },
    {
      "accessType": "READ",
      "principalType": "ROLE",
      "principalId": "$authenticated",
      "permission": "ALLOW"
    }
  ],
  "methods": {}
}
